simulation/qsim/lab3.msim.vcd
$comment
	File created using the following command:
		vcd file lab3.msim.vcd -direction
$end
$date
	Sun Nov 06 22:11:17 2022
$end
$version
	ModelSim Version 10.1d
$end
$timescale
	1ps
$end
$scope module controller_vlg_vec_tst $end
$var reg 1 ! carSig $end
$var reg 1 " clk $end
$var reg 1 # reset $end
$var reg 4 $ setWeight [3:0] $end
$var wire 1 % mainStreetLight [2] $end
$var wire 1 & mainStreetLight [1] $end
$var wire 1 ' mainStreetLight [0] $end
$var wire 1 ( sideStreetLight [2] $end
$var wire 1 ) sideStreetLight [1] $end
$var wire 1 * sideStreetLight [0] $end
$var wire 1 + sampler $end
$scope module i1 $end
$var wire 1 , gnd $end
$var wire 1 - vcc $end
$var wire 1 . unknown $end
$var tri1 1 / devclrn $end
$var tri1 1 0 devpor $end
$var tri1 1 1 devoe $end
$var wire 1 2 mainStreetLight[0]~output_o $end
$var wire 1 3 mainStreetLight[1]~output_o $end
$var wire 1 4 mainStreetLight[2]~output_o $end
$var wire 1 5 sideStreetLight[0]~output_o $end
$var wire 1 6 sideStreetLight[1]~output_o $end
$var wire 1 7 sideStreetLight[2]~output_o $end
$var wire 1 8 clk~input_o $end
$var wire 1 9 clk~inputclkctrl_outclk $end
$var wire 1 : setWeight[0]~input_o $end
$var wire 1 ; systemCounter|bit0|int_q~0_combout $end
$var wire 1 < setWeight[1]~input_o $end
$var wire 1 = systemCounter|bit1|int_q~0_combout $end
$var wire 1 > systemCounter|bit1|int_q~feeder_combout $end
$var wire 1 ? systemCounter|bit1|int_q~q $end
$var wire 1 @ setCounter~0_combout $end
$var wire 1 A setCounter~1_combout $end
$var wire 1 B carSig~input_o $end
$var wire 1 C setWeight[2]~input_o $end
$var wire 1 D setWeight[3]~input_o $end
$var wire 1 E systemCounter|bit2|int_q~0_combout $end
$var wire 1 F systemCounter|bit2|int_q~q $end
$var wire 1 G systemCounter|bit3|int_q~0_combout $end
$var wire 1 H systemCounter|bit3|int_q~q $end
$var wire 1 I countComp|o_EQ~0_combout $end
$var wire 1 J fsmCont|ffIn[0]~3_combout $end
$var wire 1 K fsmCont|ffIn[0]~4_combout $end
$var wire 1 L fsmCont|ffIn[0]~5_combout $end
$var wire 1 M reset~input_o $end
$var wire 1 N reset~inputclkctrl_outclk $end
$var wire 1 O fsmCont|Y0|int_q~q $end
$var wire 1 P fsmCont|ffIn[1]~1_combout $end
$var wire 1 Q fsmCont|ffIn[1]~2_combout $end
$var wire 1 R fsmCont|Y1|int_q~q $end
$var wire 1 S fsmCont|r[6]~0_combout $end
$var wire 1 T setCounter~2_combout $end
$var wire 1 U setCounter~3_combout $end
$var wire 1 V setCounter~4_combout $end
$var wire 1 W systemCounter|bit0|int_q~q $end
$var wire 1 X countComp|o_EQ~1_combout $end
$var wire 1 Y countComp|o_EQ~2_combout $end
$var wire 1 Z fsmCont|Y2|int_q~0_combout $end
$var wire 1 [ fsmCont|Y2|int_q~q $end
$var wire 1 \ fsmCont|ffIn[0]~0_combout $end
$var wire 1 ] rtl~0_combout $end
$var wire 1 ^ fsmCont|sstl~0_combout $end
$var wire 1 _ fsmCont|sstl [2] $end
$var wire 1 ` fsmCont|sstl [1] $end
$var wire 1 a fsmCont|sstl [0] $end
$var wire 1 b fsmCont|mstl [2] $end
$var wire 1 c fsmCont|mstl [1] $end
$var wire 1 d fsmCont|mstl [0] $end
$upscope $end
$upscope $end
$enddefinitions $end
#0
$dumpvars
0!
0"
1#
b101 $
1'
0&
0%
0*
0)
1(
x+
0,
1-
x.
1/
10
11
12
03
04
05
06
17
08
09
1:
1;
0<
1=
1>
0?
0@
0A
0B
1C
0D
1E
0F
1G
0H
1I
0J
0K
0L
1M
1N
0O
0P
0Q
0R
0S
0T
0U
0V
0W
1X
1Y
0Z
0[
1\
0]
0^
0a
0`
z_
zd
0c
zb
$end
#1000
1"
18
19
0+
1W
0X
0;
#2000
1!
0"
1B
08
09
1+
#3000
1"
18
19
0+
0W
1X
1;
1?
1A
0=
1V
1U
0>
0V
0?
0A
1=
0U
1>
1F
0I
0E
#4000
0!
0"
0B
08
09
1+
#5000
1"
18
19
0+
1W
0X
0;
0Y
1L
#6000
0"
08
09
1+
#7000
1"
18
19
0+
0W
1O
1X
1;
1K
1J
1Y
1?
1A
0=
1V
0>
0?
0F
0A
1=
1U
1I
1E
0V
0U
1>
#8000
0"
08
09
1+
#9000
1"
18
19
0+
1W
0X
0;
#10000
0"
08
09
1+
#11000
1"
18
19
0+
0W
1X
1;
1?
1A
0=
1V
1U
0>
0V
0?
0A
1=
0U
1>
1F
0I
0E
#12000
0"
08
09
1+
#13000
1"
18
19
0+
1W
0X
0;
0Y
#14000
0"
08
09
1+
#15000
1"
18
19
0+
0W
1X
1;
1Y
1?
1A
0=
1V
0>
0?
0F
0A
1=
1U
1I
1E
0V
0U
1>
#16000
0"
08
09
1+
#17000
1"
18
19
0+
1W
0X
0;
#18000
0"
08
09
1+
#19000
1"
18
19
0+
0W
1X
1;
1?
1A
0=
1V
1U
0>
0V
0?
0A
1=
0U
1>
1F
0I
0E
#20000
0"
08
09
1+
#21000
1"
18
19
0+
1W
0X
0;
0Y
#22000
0"
08
09
1+
#23000
1"
18
19
0+
0W
1X
1;
1Y
1?
1A
0=
1V
0>
0?
0F
0A
1=
1U
1I
1E
0V
0U
1>
#24000
0"
08
09
1+
#25000
1"
18
19
0+
1W
0X
0;
#26000
0"
08
09
1+
#27000
1"
18
19
0+
0W
1X
1;
1?
1A
0=
1V
1U
0>
0V
0?
0A
1=
0U
1>
1F
0I
0E
#28000
0"
08
09
1+
#29000
1"
18
19
0+
1W
0X
0;
0Y
#30000
0"
08
09
1+
#31000
1"
18
19
0+
0W
1X
1;
1Y
1?
1A
0=
1V
0>
0?
0F
0A
1=
1U
1I
1E
0V
0U
1>
#32000
1!
0"
1B
08
09
1+
1S
0K
1V
1Q
0L
#33000
1"
18
19
0+
1R
0O
0S
0J
1c
0\
0V
13
02
1&
0'
#34000
0!
0"
0B
08
09
1+
#35000
1"
18
19
0+
1W
0X
0;
#36000
0"
08
09
1+
#37000
1"
18
19
0+
0W
1X
1;
1?
1A
0=
1V
1U
0>
0V
0?
0A
1=
0U
1>
1F
0I
0E
#38000
0"
08
09
1+
#39000
1"
18
19
0+
1W
0X
0;
0Y
1L
#40000
0"
08
09
1+
#41000
1"
18
19
0+
0W
1O
1X
1;
1Z
1P
1K
1]
0c
1Y
0P
0Q
14
03
1%
0&
0Z
1Q
1?
1A
0=
1V
0>
0?
0F
0A
1=
1U
1I
1E
0V
0U
1>
#42000
0"
08
09
1+
#43000
1"
18
19
0+
1W
0X
0;
1P
#44000
0"
08
09
1+
#45000
1"
18
19
0+
0W
1X
1;
0P
1?
1A
0=
1V
1U
0>
0V
0?
0A
1=
0U
1>
1F
0I
0E
#46000
0"
08
09
1+
#47000
1"
18
19
0+
1W
0X
0;
0Y
1P
0L
1Z
0Q
#48000
0"
08
09
1+
#49000
1"
18
19
0+
1[
0W
0R
0O
1^
0P
0K
1X
1;
1Q
1a
0Q
1Y
07
15
0(
1*
1?
1A
0=
1V
0>
0?
0F
0A
1=
1U
1I
1E
0V
0U
1>
#50000
0"
08
09
1+
#51000
1"
18
19
0+
1W
0X
0;
#52000
0"
08
09
1+
#53000
1"
18
19
0+
0W
1X
1;
1?
1A
0=
1V
1U
0>
0V
0?
0A
1=
0U
1>
1F
0I
0E
#54000
0"
08
09
1+
#55000
1"
18
19
0+
1W
0X
0;
0Y
1L
#56000
0"
08
09
1+
#57000
1"
18
19
0+
0W
1O
1X
1;
1P
1K
1`
0a
1Y
0P
1Q
16
05
1)
0*
0Q
1?
1A
0=
1V
0>
0?
0F
0A
1=
1U
1I
1E
0V
0U
1>
#58000
0"
08
09
1+
#59000
1"
18
19
0+
1W
0X
0;
1P
#60000
0"
08
09
1+
#61000
1"
18
19
0+
0W
1X
1;
0P
1?
1A
0=
1V
1U
0>
0V
0?
0A
1=
0U
1>
1F
0I
0E
#62000
0"
08
09
1+
#63000
1"
18
19
0+
1W
0X
0;
0Y
1P
0L
1Q
#64000
0"
08
09
1+
#65000
1"
18
19
0+
0W
1R
0O
1X
1;
0^
0Z
0Q
0K
1J
0`
1Y
0P
17
06
1(
0)
1Z
1Q
1?
1A
0=
1V
0>
0?
0F
0A
1=
1U
1I
1E
0V
0U
1>
#66000
0"
08
09
1+
#67000
1"
18
19
0+
1W
0X
0;
1P
#68000
0"
08
09
1+
#69000
1"
18
19
0+
0W
1X
1;
0P
1?
1A
0=
1V
1U
0>
0V
0?
0A
1=
0U
1>
1F
0I
0E
#70000
0"
08
09
1+
#71000
1"
18
19
0+
1W
0X
0;
0Y
1P
0Z
0Q
#72000
0"
08
09
1+
#73000
1"
18
19
0+
0[
0W
0R
0P
0J
1X
1;
1Q
0]
1\
0Q
1Y
04
12
0%
1'
1?
1A
0=
1V
0>
0?
0F
0A
1=
1U
1I
1E
0V
0U
1>
#74000
0"
08
09
1+
#75000
1"
18
19
0+
1W
0X
0;
#76000
0"
08
09
1+
#77000
1"
18
19
0+
0W
1X
1;
1?
1A
0=
1V
1U
0>
0V
0?
0A
1=
0U
1>
1F
0I
0E
#78000
0"
08
09
1+
#79000
1"
18
19
0+
1W
0X
0;
0Y
1L
#80000
0"
08
09
1+
#81000
1"
18
19
0+
0W
1O
1X
1;
1K
1J
1Y
1?
1A
0=
1V
0>
0?
0F
0A
1=
1U
1I
1E
0V
0U
1>
#82000
0"
08
09
1+
#83000
1"
18
19
0+
1W
0X
0;
#84000
0"
08
09
1+
#85000
1"
18
19
0+
0W
1X
1;
1?
1A
0=
1V
1U
0>
0V
0?
0A
1=
0U
1>
1F
0I
0E
#86000
0"
08
09
1+
#87000
1"
18
19
0+
1W
0X
0;
0Y
#88000
0"
08
09
1+
#89000
1"
18
19
0+
0W
1X
1;
1Y
1?
1A
0=
1V
0>
0?
0F
0A
1=
1U
1I
1E
0V
0U
1>
#90000
0"
08
09
1+
#91000
1"
18
19
0+
1W
0X
0;
#92000
0"
08
09
1+
#93000
1"
18
19
0+
0W
1X
1;
1?
1A
0=
1V
1U
0>
0V
0?
0A
1=
0U
1>
1F
0I
0E
#94000
0"
08
09
1+
#95000
1"
18
19
0+
1W
0X
0;
0Y
#96000
0"
08
09
1+
#97000
1"
18
19
0+
0W
1X
1;
1Y
1?
1A
0=
1V
0>
0?
0F
0A
1=
1U
1I
1E
0V
0U
1>
#98000
0"
08
09
1+
#99000
1"
18
19
0+
1W
0X
0;
