simulation/qsim/lab3.msim.vcd
$comment
	File created using the following command:
		vcd file lab3.msim.vcd -direction
$end
$date
	Sun Nov 06 19:36:39 2022
$end
$version
	ModelSim Version 10.1d
$end
$timescale
	1ps
$end
$scope module controller_vlg_vec_tst $end
$var reg 1 ! carSig $end
$var reg 1 " clk $end
$var reg 1 # reset $end
$var reg 4 $ setWeight [3:0] $end
$var wire 1 % countVal [3] $end
$var wire 1 & countVal [2] $end
$var wire 1 ' countVal [1] $end
$var wire 1 ( countVal [0] $end
$var wire 1 ) mainStreetLight [2] $end
$var wire 1 * mainStreetLight [1] $end
$var wire 1 + mainStreetLight [0] $end
$var wire 1 , shouldReset $end
$var wire 1 - sideStreetLight [2] $end
$var wire 1 . sideStreetLight [1] $end
$var wire 1 / sideStreetLight [0] $end
$var wire 1 0 state [2] $end
$var wire 1 1 state [1] $end
$var wire 1 2 state [0] $end
$var wire 1 3 sum [3] $end
$var wire 1 4 sum [2] $end
$var wire 1 5 sum [1] $end
$var wire 1 6 sum [0] $end
$var wire 1 7 sampler $end
$scope module i1 $end
$var wire 1 8 gnd $end
$var wire 1 9 vcc $end
$var wire 1 : unknown $end
$var tri1 1 ; devclrn $end
$var tri1 1 < devpor $end
$var tri1 1 = devoe $end
$var wire 1 > mainStreetLight[0]~output_o $end
$var wire 1 ? mainStreetLight[1]~output_o $end
$var wire 1 @ mainStreetLight[2]~output_o $end
$var wire 1 A sideStreetLight[0]~output_o $end
$var wire 1 B sideStreetLight[1]~output_o $end
$var wire 1 C sideStreetLight[2]~output_o $end
$var wire 1 D state[0]~output_o $end
$var wire 1 E state[1]~output_o $end
$var wire 1 F state[2]~output_o $end
$var wire 1 G shouldReset~output_o $end
$var wire 1 H countVal[0]~output_o $end
$var wire 1 I countVal[1]~output_o $end
$var wire 1 J countVal[2]~output_o $end
$var wire 1 K countVal[3]~output_o $end
$var wire 1 L sum[0]~output_o $end
$var wire 1 M sum[1]~output_o $end
$var wire 1 N sum[2]~output_o $end
$var wire 1 O sum[3]~output_o $end
$var wire 1 P clk~input_o $end
$var wire 1 Q clk~inputclkctrl_outclk $end
$var wire 1 R systemCounter|bit0|int_q~0_combout $end
$var wire 1 S carSig~input_o $end
$var wire 1 T fsmCont|ffIn[1]~1_combout $end
$var wire 1 U setWeight[3]~input_o $end
$var wire 1 V setWeight[2]~input_o $end
$var wire 1 W systemCounter|bit2|int_q~0_combout $end
$var wire 1 X systemCounter|bit2|int_q~feeder_combout $end
$var wire 1 Y systemCounter|bit2|int_q~q $end
$var wire 1 Z systemCounter|bit3|int_q~0_combout $end
$var wire 1 [ systemCounter|bit3|int_q~q $end
$var wire 1 \ countComp|o_EQ~0_combout $end
$var wire 1 ] fsmCont|ffIn[1]~2_combout $end
$var wire 1 ^ reset~input_o $end
$var wire 1 _ reset~inputclkctrl_outclk $end
$var wire 1 ` fsmCont|Y1|int_q~q $end
$var wire 1 a fsmCont|ffIn[0]~4_combout $end
$var wire 1 b fsmCont|ffIn[0]~3_combout $end
$var wire 1 c fsmCont|ffIn[0]~5_combout $end
$var wire 1 d fsmCont|Y0|int_q~q $end
$var wire 1 e setCounter~2_combout $end
$var wire 1 f setWeight[0]~input_o $end
$var wire 1 g setWeight[1]~input_o $end
$var wire 1 h resetWeightGen|bit3|int_CarryOut1~0_combout $end
$var wire 1 i resetWeightGen|bit2|int_CarryOut1~combout $end
$var wire 1 j setCounter~3_combout $end
$var wire 1 k setCounter~5_combout $end
$var wire 1 l setCounter~4_combout $end
$var wire 1 m systemCounter|bit0|int_q~q $end
$var wire 1 n systemCounter|bit1|int_q~0_combout $end
$var wire 1 o systemCounter|bit1|int_q~q $end
$var wire 1 p countComp|o_EQ~1_combout $end
$var wire 1 q countComp|o_EQ~2_combout $end
$var wire 1 r fsmCont|Y2|int_q~0_combout $end
$var wire 1 s fsmCont|Y2|int_q~q $end
$var wire 1 t fsmCont|ffIn[0]~0_combout $end
$var wire 1 u rtl~0_combout $end
$var wire 1 v fsmCont|sstl~0_combout $end
$var wire 1 w resetWeightGen|bit1|int_CarryOut1~combout $end
$var wire 1 x fsmCont|mstl [2] $end
$var wire 1 y fsmCont|mstl [1] $end
$var wire 1 z fsmCont|mstl [0] $end
$var wire 1 { fsmCont|sstl [2] $end
$var wire 1 | fsmCont|sstl [1] $end
$var wire 1 } fsmCont|sstl [0] $end
$upscope $end
$upscope $end
$enddefinitions $end
#0
$dumpvars
0!
0"
1#
b101 $
0(
0'
0&
0%
1+
0*
0)
1,
0/
0.
1-
02
01
00
06
15
14
03
x7
08
19
x:
1;
1<
1=
1>
0?
0@
0A
0B
1C
0D
0E
0F
1G
0H
0I
0J
0K
0L
1M
1N
0O
0P
0Q
1R
0S
0T
0U
1V
1W
1X
0Y
1Z
0[
1\
0]
1^
1_
0`
0a
0b
0c
0d
0e
1f
0g
0h
1i
0j
0k
0l
0m
1n
0o
1p
1q
0r
0s
1t
0u
0v
1w
zz
0y
zx
0}
0|
z{
$end
#1000
1"
1P
1Q
07
1m
0p
0R
1H
1(
#2000
0"
0P
0Q
17
#3000
1"
1P
1Q
07
0m
1p
1R
0H
0(
1o
0n
1I
1'
#4000
0"
0P
0Q
17
#5000
1"
1P
1Q
07
1m
0R
1H
1(
#6000
0"
0P
0Q
17
#7000
1"
1P
1Q
07
0m
1R
0H
0(
0o
1n
0I
0'
1Y
1j
0\
0W
1J
1&
0X
#8000
0"
0P
0Q
17
#9000
1"
1P
1Q
07
1m
0p
0R
1H
1(
0q
1c
#10000
0"
0P
0Q
17
#11000
1"
1P
1Q
07
0m
1d
1p
1R
1b
1a
0H
1D
0(
12
1q
1o
0n
1k
1I
1'
1l
0G
0,
0Y
0o
0j
1\
1W
1n
0k
0J
0I
0&
0'
1X
0l
1G
1,
#12000
0"
0P
0Q
17
#13000
1"
1P
1Q
07
1m
0p
0R
1H
1(
#14000
0"
0P
0Q
17
#15000
1"
1P
1Q
07
0m
1p
1R
0H
0(
1o
0n
1I
1'
#16000
0"
0P
0Q
17
#17000
1"
1P
1Q
07
1m
0R
1H
1(
#18000
0"
0P
0Q
17
#19000
1"
1P
1Q
07
0m
1R
0H
0(
0o
1n
0I
0'
1Y
1j
0\
0W
1J
1&
0X
#20000
0"
0P
0Q
17
#21000
1"
1P
1Q
07
1m
0p
0R
1H
1(
0q
#22000
0"
0P
0Q
17
#23000
1"
1P
1Q
07
0m
1p
1R
0H
0(
1q
1o
0n
1k
1I
1'
1l
0G
0,
0Y
0o
0j
1\
1W
1n
0k
0J
0I
0&
0'
1X
0l
1G
1,
#24000
0"
0P
0Q
17
#25000
1"
1P
1Q
07
1m
0p
0R
1H
1(
#26000
1!
0"
1S
0P
0Q
17
1e
0a
1l
1]
0c
0G
0,
0m
1p
1R
0H
0(
#27000
1"
1P
1Q
07
0d
1`
0e
0b
0D
1E
02
11
1y
0t
0l
1?
0>
1*
0+
1G
1,
#28000
0"
0P
0Q
17
#29000
1"
1P
1Q
07
1m
0p
0R
1H
1(
#30000
0"
0P
0Q
17
#31000
1"
1P
1Q
07
0m
1p
1R
0H
0(
1o
0n
1I
1'
#32000
0"
0P
0Q
17
#33000
1"
1P
1Q
07
1m
0R
1H
1(
#34000
0"
0P
0Q
17
#35000
1"
1P
1Q
07
0m
1R
0H
0(
0o
1n
0I
0'
1Y
1j
0\
0W
1J
1&
0X
#36000
0!
0"
0S
0P
0Q
17
#37000
1"
1P
1Q
07
1m
0p
0R
1H
1(
0q
1c
#38000
0"
0P
0Q
17
#39000
1"
1P
1Q
07
0m
1d
1p
1R
1r
1a
1T
0H
1D
0(
12
1u
0y
1q
0T
0]
1@
0?
1)
0*
0r
1]
1o
0n
1k
1I
1'
1l
0G
0,
0Y
0o
0j
1\
1W
1n
0k
0J
0I
0&
0'
1X
0l
1G
1,
#40000
0"
0P
0Q
17
#41000
1"
1P
1Q
07
1m
0p
0R
1H
1(
1T
#42000
0"
0P
0Q
17
#43000
1"
1P
1Q
07
0m
1p
1R
0H
0(
0T
1o
0n
1I
1'
#44000
0"
0P
0Q
17
#45000
1"
1P
1Q
07
1m
0R
1H
1(
#46000
0"
0P
0Q
17
#47000
1"
1P
1Q
07
0m
1R
0H
0(
0o
1n
0I
0'
1Y
1j
0\
0W
1J
1&
0X
#48000
0"
0P
0Q
17
#49000
1"
1P
1Q
07
1m
0p
0R
1H
1(
0q
0c
1T
1r
0]
#50000
0"
0P
0Q
17
#51000
1"
1P
1Q
07
1s
0m
0d
0`
1v
0a
0T
1p
1R
1]
1F
0H
0D
0E
10
0(
02
01
1}
0]
1q
0C
1A
0-
1/
1o
0n
1k
1I
1'
1l
0G
0,
0Y
0o
0j
1\
1W
1n
0k
0J
0I
0&
0'
1X
0l
1G
1,
#52000
0"
0P
0Q
17
#53000
1"
1P
1Q
07
1m
0p
0R
1H
1(
#54000
0"
0P
0Q
17
#55000
1"
1P
1Q
07
0m
1p
1R
0H
0(
1o
0n
1I
1'
#56000
0"
0P
0Q
17
#57000
1"
1P
1Q
07
1m
0R
1H
1(
#58000
0"
0P
0Q
17
#59000
1"
1P
1Q
07
0m
1R
0H
0(
0o
1n
0I
0'
1Y
1j
0\
0W
1J
1&
0X
#60000
0"
0P
0Q
17
#61000
1"
1P
1Q
07
1m
0p
0R
1H
1(
0q
1c
#62000
0"
0P
0Q
17
#63000
1"
1P
1Q
07
0m
1d
1p
1R
1a
1T
0H
1D
0(
12
1|
0}
1q
0T
1]
1B
0A
1.
0/
0]
1o
0n
1k
1I
1'
1l
0G
0,
0Y
0o
0j
1\
1W
1n
0k
0J
0I
0&
0'
1X
0l
1G
1,
#64000
0"
0P
0Q
17
#65000
1"
1P
1Q
07
1m
0p
0R
1H
1(
1T
#66000
0"
0P
0Q
17
#67000
1"
1P
1Q
07
0m
1p
1R
0H
0(
0T
1o
0n
1I
1'
#68000
0"
0P
0Q
17
#69000
1"
1P
1Q
07
1m
0R
1H
1(
#70000
0"
0P
0Q
17
#71000
1"
1P
1Q
07
0m
1R
0H
0(
0o
1n
0I
0'
1Y
1j
0\
0W
1J
1&
0X
#72000
0"
0P
0Q
17
#73000
1"
1P
1Q
07
1m
0p
0R
1H
1(
0q
0c
1T
1]
#74000
0"
0P
0Q
17
#75000
1"
1P
1Q
07
0m
0d
1`
1p
1R
0r
1b
0a
0v
0]
0H
0D
1E
0(
02
11
0|
1q
0T
1C
0B
1-
0.
1r
1]
1o
0n
1k
1I
1'
1l
0G
0,
0Y
0o
0j
1\
1W
1n
0k
0J
0I
0&
0'
1X
0l
1G
1,
#76000
0"
0P
0Q
17
#77000
1"
1P
1Q
07
1m
0p
0R
1H
1(
1T
#78000
0"
0P
0Q
17
#79000
1"
1P
1Q
07
0m
1p
1R
0H
0(
0T
1o
0n
1I
1'
#80000
0"
0P
0Q
17
#81000
1"
1P
1Q
07
1m
0R
1H
1(
#82000
0"
0P
0Q
17
#83000
1"
1P
1Q
07
0m
1R
0H
0(
0o
1n
0I
0'
1Y
1j
0\
0W
1J
1&
0X
#84000
0"
0P
0Q
17
#85000
1"
1P
1Q
07
1m
0p
0R
1H
1(
0q
1T
0r
0]
#86000
0"
0P
0Q
17
#87000
1"
1P
1Q
07
0s
0m
0`
0b
0T
1p
1R
1]
0F
0H
0E
00
0(
01
0u
1t
0]
1q
0@
1>
0)
1+
1o
0n
1k
1I
1'
1l
0G
0,
0Y
0o
0j
1\
1W
1n
0k
0J
0I
0&
0'
1X
0l
1G
1,
#88000
0"
0P
0Q
17
#89000
1"
1P
1Q
07
1m
0p
0R
1H
1(
#90000
0"
0P
0Q
17
#91000
1"
1P
1Q
07
0m
1p
1R
0H
0(
1o
0n
1I
1'
#92000
0"
0P
0Q
17
#93000
1"
1P
1Q
07
1m
0R
1H
1(
#94000
0"
0P
0Q
17
#95000
1"
1P
1Q
07
0m
1R
0H
0(
0o
1n
0I
0'
1Y
1j
0\
0W
1J
1&
0X
#96000
0"
0P
0Q
17
#97000
1"
1P
1Q
07
1m
0p
0R
1H
1(
0q
1c
#98000
0"
0P
0Q
17
#99000
1"
1P
1Q
07
0m
1d
1p
1R
1b
1a
0H
1D
0(
12
1q
1o
0n
1k
1I
1'
1l
0G
0,
0Y
0o
0j
1\
1W
1n
0k
0J
0I
0&
0'
1X
0l
1G
1,
